…
 ```{r}
 write_rds(desafio, "desafio.rds")
 read_rds("desafio.rds")
 ```

1. El paquete **feather** implementa un formato rápido de archivos binarios que
 puede compartirse a través de lenguajes de programación:

 ```{r, eval = FALSE}
 library(feather)
 write_feather(desafio, "desafio.feather")
 read_feather("desafio.feather")
 #> # A tibble: 2,000 x 2
 #> x y
 #> <dbl> <date>
 #> 1 404 <NA>
 #> 2 4172 <NA>
 #> 3 3004 <NA>
 #> 4 787 <NA>
 #> 5 37 <NA>
 #> 6 2332 <NA>
 #> # ... with 1,994 more rows
 ```
…
