…
```r
library(tidyverse)
library(datos)
```

## datos {#nycflights13-relational}

Usaremos el paquete datos^[NdT. El texto original se refiere al paquete nycflights13 cuya traducción se incluye en el paquete datos.] para aprender de los datos relacionales. datos contiene cuatro tablas que se relacionan con la tabla `vuelos` que se usó en [data transformation]:

* `aerolineas` permite observar el nombre completo de la aerolínea a partir de su código abreviado:

 
 ```r
 aerolineas
 #> # A tibble: 16 x 2
 #>   aerolinea nombre                  
 #>   <chr>     <chr>                   
 #> 1 9E        Endeavor Air Inc.       
 #> 2 AA        American Airlines Inc.  
 #> 3 AS        Alaska Airlines Inc.    
 #> 4 B6        JetBlue Airways         
 #> 5 DL        Delta Air Lines Inc.    
 #> 6 EV        ExpressJet Airlines Inc.
 #> # … with 10 more rows
 ```

* `aeropuertos` entrega información de cada aeropuerto, identificado por su código de aeropuerto:

 
 ```r
 aeropuertos
 #> # A tibble: 1,458 x 8
 #>   codigo_aeropuer… nombre latitud longitud altura zona_horaria
 #>   <chr>            <chr>    <dbl>    <dbl>  <int>        <dbl>
 #> 1 04G              Lansd…    41.1    -80.6   1044           -5
 #> 2 06A              Moton…    32.5    -85.7    264           -6
 #> 3 06C              Schau…    42.0    -88.1    801           -6
 #> 4 06N              Randa…    41.4    -74.4    523           -5
 #> 5 09J              Jekyl…    31.1    -81.4     11           -5
 #> 6 0A9              Eliza…    36.4    -82.2   1593           -5
 #> # … with 1,452 more rows, and 2 more variables: horario_verano <chr>,
 #> #   zona_horaria_iana <chr>
 ```

* `aviones` entrega información de cada aeropuerto, identificado por su `codigo_cola`:

 
 ```r
 aviones
 #> # A tibble: 3,322 x 9
 #>   codigo_cola  anio tipo  fabricante modelo motores asientos velocidad
 #>   <chr>       <int> <chr> <chr>      <chr>    <int>    <int>     <int>
 #> 1 N10156       2004 Fixe… EMBRAER    EMB-1…       2       55        NA
 #> 2 N102UW       1998 Fixe… AIRBUS IN… A320-…       2      182        NA
 #> 3 N103US       1999 Fixe… AIRBUS IN… A320-…       2      182        NA
 #> 4 N104UW       1999 Fixe… AIRBUS IN… A320-…       2      182        NA
 #> 5 N10575       2002 Fixe… EMBRAER    EMB-1…       2       55        NA
 #> 6 N105UW       1999 Fixe… AIRBUS IN… A320-…       2      182        NA
 #> # … with 3,316 more rows, and 1 more variable: tipo_motor <chr>
 ```
…
