…
## gapminder

Para motivar el poder de muchos modelos simples, vamos a mirar los datos de "gapminder". Estos datos fueron popularizados por Hans Rosling, un doctor y estadístico sueco. Si nunca has escuchado de él, para de leer este capítulo ahora mismo y ve a mirar uno de sus videos! Él es un presentador de datos fantástico e ilustra cómo puedes usar datos para presentar una historia convincente. Un buen lugar para empezar es este video corto filmado en conjunto con la BBC: <https://www.youtube.com/watch?v=jbkSRLYSojo>.

Los datos de gapminder resumen la progresión de países a través del tiempo, mirando estadísticos como esperanza de vida y PIB. Los datos son de fácil acceso en R, gracias a Jenny Bryan que creó el paquete __gapminder__. Utilizaremos la versión en español contenida en el paquete __datos__ (TODO: ver cómo poner esto):


```r
library(datos)
paises
#> # A tibble: 1,704 x 6
#>   pais       continente  anio esperanza_de_vida poblacion pib_per_capita
#>   <fct>      <fct>      <int>             <dbl>     <int>          <dbl>
#> 1 Afganistan Asia        1952              28.8   8425333           779.
#> 2 Afganistan Asia        1957              30.3   9240934           821.
#> 3 Afganistan Asia        1962              32.0  10267083           853.
#> 4 Afganistan Asia        1967              34.0  11537966           836.
#> 5 Afganistan Asia        1972              36.1  13079460           740.
#> 6 Afganistan Asia        1977              38.4  14880372           786.
#> # … with 1,698 more rows
```
…
¿Cómo podemos ajustar fácilmente ese modelo para cada país?

### Datos anidados

Te puedes imaginar copiando y pegando ese código múltiples veces; pero ya has aprendido una mejor forma! Extrae el código en común con una función y repítelo usando una función map (TODO: no me queda claro que tenga sentido poner que el nombre de esta función venga del inglés, y no sé si ponerla en cursiva) de __purrr__. Este problema se estructura un poco diferente respecto a lo que has visto antes. En lugar de repetir una acción por cada variable, queremos repetirla para cada país, un subconjunto de filas. Para hacer eso, necesitamos una nueva estructura de datos: el __*data frame* anidado__ (_nested data frame_). Para crear un _data frame_ anidado empezamos con un _data frame_ agrupado, y lo "anidamos":


```r
por_pais <- paises %>%
  group_by(pais, continente) %>%
  nest()

por_pais
#> # A tibble: 142 x 3
#>   pais       continente data             
#>   <fct>      <fct>      <list>           
#> 1 Afganistan Asia       <tibble [12 × 4]>
#> 2 Albania    Europa     <tibble [12 × 4]>
#> 3 Argelia    Africa     <tibble [12 × 4]>
#> 4 Angola     Africa     <tibble [12 × 4]>
#> 5 Argentina  Americas   <tibble [12 × 4]>
#> 6 Australia  Oceania    <tibble [12 × 4]>
#> # … with 136 more rows
```

(Estoy haciendo un poco de trampa agrupando por `continente` y `pais` al mismo tiempo. Dado el `pais`, `continente` es fijo, así que no agrega ningún grupo más, pero es una forma fácil de llevarnos una variable adicional para el camino.)

Ésto crea un _data frame_ que tiene una fila por grupo (por país), y una columna bastante inusual: `data`. `data` es una lista de _data frames_ (o _tibbles_, para ser precisos). Esto parece una idea un poco loca: tenemos un _data frame_ con una columna que es una lista de otros _data frames_! Explicaré brevemente por qué pienso que es una buena idea.

La columna `data` es un poco difícil de examinar porque es una lista moderadamente complicada, y todavía estamos trabajando para tener buenas herramientas para explorar estos objetos. Desafortunadamente usar `str()` no es recomendable porque usualmente producirá un _output_ (salida de código) muy extenso. Pero si extraes un solo elemento de la columna `data` verás que contiene todos los datos para ese país (en este caso, Afganistán).


```r
por_pais$data[[1]]
#> # A tibble: 12 x 4
#>    anio esperanza_de_vida poblacion pib_per_capita
#>   <int>             <dbl>     <int>          <dbl>
#> 1  1952              43.1   9279525          2449.
#> 2  1957              45.7  10270856          3014.
#> 3  1962              48.3  11000948          2551.
#> 4  1967              51.4  12760499          3247.
#> 5  1972              54.5  14760787          4183.
#> 6  1977              58.0  17152804          4910.
#> # … with 6 more rows
```
…
