12 Datos ordenados | R para Ciencia de Datos
…
Puedes representar la misma información de múltiples formas. El ejemplo a continuación muestra los mismos datos ordenados de cuatro manera distintas. Cada dataset muestra los mismos valores de cuatro variables pais, anio, poblacion y casos, pero cada dataset organiza los valores de forma distinta.

tabla1
#> # A tibble: 6 x 4
#>   pais        anio  casos  poblacion
#>   <fct>      <int>  <int>      <int>
#> 1 Afganistan  1999    745   19987071
#> 2 Afganistan  2000   2666   20595360
#> 3 Brasil      1999  37737  172006362
#> 4 Brasil      2000  80488  174504898
#> 5 China       1999 212258 1272915272
#> 6 China       2000 213766 1280428583
tabla2
#> # A tibble: 12 x 4
#>   pais        anio tipo         cuenta
#>   <fct>      <int> <fct>         <int>
#> 1 Afganistan  1999 casos           745
#> 2 Afganistan  1999 poblacion  19987071
#> 3 Afganistan  2000 casos          2666
#> 4 Afganistan  2000 poblacion  20595360
#> 5 Brasil      1999 casos         37737
#> 6 Brasil      1999 poblacion 172006362
#> # … with 6 more rows
…
12.3.2 Spread

Extender (spread) es lo opuesto de gather. Lo usas cuando una observación aparece en múltiples filas. Por ejemplo, toma la tabla tabla2: una observación

You use it when an observation is scattered across multiple rows. For example, take tabla2: una observación es un país en un año, pero cada observación se reparte entre dos filas.

tabla2
#> # A tibble: 12 x 4
#>   pais        anio tipo         cuenta
#>   <fct>      <int> <fct>         <int>
#> 1 Afganistan  1999 casos           745
#> 2 Afganistan  1999 poblacion  19987071
#> 3 Afganistan  2000 casos          2666
#> 4 Afganistan  2000 poblacion  20595360
#> 5 Brasil      1999 casos         37737
#> 6 Brasil      1999 poblacion 172006362
#> # … with 6 more rows
…
Another important tool for making missing values explicit in tidy data is complete():

stocks %>%
  complete(anio, qtr)
#> # A tibble: 8 x 3
#>    anio   qtr return
#>   <dbl> <dbl>  <dbl>
#> 1  2015     1   1.88
#> 2  2015     2   0.59
#> 3  2015     3   0.35
#> 4  2015     4  NA   
#> 5  2016     1  NA   
#> 6  2016     2   0.92
#> # … with 2 more rows
…
12.5.1 Exercises

Compare and contrast the fill arguments to spread() and complete().

What does the direction argument to fill() do?

12.6 Case Study

To finish off the chapter, let’s pull together everything you’ve learned to tackle a realistic data tidying problem. The tidyr::who dataset contains tuberculosis (TB) casos broken down by anio, pais, age, gender, and diagnosis method. The data comes from the 2014 World Health Organization Global Tuberculosis Report, available at http://www.who.int/tb/pais/data/download/en/.

There’s a wealth of epidemiological information in this dataset, but it’s challenging to work with the data in the form that it’s provided:

who
#> # A tibble: 7,240 x 60
#>   country iso2  iso3   year new_sp_m014 new_sp_m1524 new_sp_m2534
#>   <chr>   <chr> <chr> <int>       <int>        <int>        <int>
#> 1 Afghan… AF    AFG    1980          NA           NA           NA
#> 2 Afghan… AF    AFG    1981          NA           NA           NA
#> 3 Afghan… AF    AFG    1982          NA           NA           NA
#> 4 Afghan… AF    AFG    1983          NA           NA           NA
#> 5 Afghan… AF    AFG    1984          NA           NA           NA
#> 6 Afghan… AF    AFG    1985          NA           NA           NA
#> # … with 7,234 more rows, and 53 more variables: new_sp_m3544 <int>,
#> #   new_sp_m4554 <int>, new_sp_m5564 <int>, new_sp_m65 <int>,
#> #   new_sp_f014 <int>, new_sp_f1524 <int>, new_sp_f2534 <int>,
#> #   new_sp_f3544 <int>, new_sp_f4554 <int>, new_sp_f5564 <int>,
#> #   new_sp_f65 <int>, new_sn_m014 <int>, new_sn_m1524 <int>,
#> #   new_sn_m2534 <int>, new_sn_m3544 <int>, new_sn_m4554 <int>,
#> #   new_sn_m5564 <int>, new_sn_m65 <int>, new_sn_f014 <int>,
#> #   new_sn_f1524 <int>, new_sn_f2534 <int>, new_sn_f3544 <int>,
#> #   new_sn_f4554 <int>, new_sn_f5564 <int>, new_sn_f65 <int>,
…
We can get some hint of the structure of the values in the new key column by counting them:

who1 %>%
  count(key)
#> # A tibble: 56 x 2
#>   key              n
#>   <chr>        <int>
#> 1 new_ep_f014   1032
#> 2 new_ep_f1524  1021
#> 3 new_ep_f2534  1021
#> 4 new_ep_f3544  1021
#> 5 new_ep_f4554  1017
#> 6 new_ep_f5564  1017
#> # … with 50 more rows
…
