25 Muchos modelos | R para Ciencia de Datos
…
Trabajar con muchos modelos requiere muchos de los paquetes del tidyverse (para exploración de datos, doma y programación) y modelr para facilitar el modelamiento.

library(modelr)
library(tidyverse)

25.2 gapminder

Para motivar el poder de muchos modelos simples, vamos a mirar los datos de “gapminder”. Estos datos fueron popularizados por Hans Rosling, un doctor y estadístico sueco. Si nunca has escuchado de él, para de leer este capítulo ahora mismo y ve a mirar uno de sus videos! Él es un presentador de datos fantástico e ilustra cómo puedes usar datos para presentar una historia convincente. Un buen lugar para empezar es este video corto filmado en conjunto con la BBC: https://www.youtube.com/watch?v=jbkSRLYSojo.

Los datos de gapminder resumen la progresión de países a través del tiempo, mirando estadísticos como esperanza de vida y PIB. Los datos son de fácil acceso en R, gracias a Jenny Bryan que creó el paquete gapminder. Utilizaremos la versión en español contenida en el paquete datos (TODO: ver cómo poner esto):

library(datos)
paises
#> # A tibble: 1,704 x 6
#>   pais       continente  anio esperanza_de_vida poblacion pib_per_capita
#>   <fct>      <fct>      <int>             <dbl>     <int>          <dbl>
#> 1 Afganistan Asia        1952              28.8   8425333           779.
#> 2 Afganistan Asia        1957              30.3   9240934           821.
#> 3 Afganistan Asia        1962              32.0  10267083           853.
#> 4 Afganistan Asia        1967              34.0  11537966           836.
#> 5 Afganistan Asia        1972              36.1  13079460           740.
#> 6 Afganistan Asia        1977              38.4  14880372           786.
#> # … with 1,698 more rows
…
¿Cómo podemos ajustar fácilmente ese modelo para cada país?

25.2.1 Datos anidados

Te puedes imaginar copiando y pegando ese código múltiples veces; pero ya has aprendido una mejor forma! Extrae el código en común con una función y repítelo usando una función map (TODO: no me queda claro que tenga sentido poner que el nombre de esta función venga del inglés, y no sé si ponerla en cursiva) de purrr. Este problema se estructura un poco diferente respecto a lo que has visto antes. En lugar de repetir una acción por cada variable, queremos repetirla para cada país, un subconjunto de filas. Para hacer eso, necesitamos una nueva estructura de datos: el data frame anidado (nested data frame). Para crear un data frame anidado empezamos con un data frame agrupado, y lo “anidamos”:

por_pais <- paises %>%
  group_by(pais, continente) %>%
  nest()

por_pais
#> # A tibble: 142 x 3
#>   pais       continente data             
#>   <fct>      <fct>      <list>           
#> 1 Afganistan Asia       <tibble [12 × 4]>
#> 2 Albania    Europa     <tibble [12 × 4]>
#> 3 Argelia    Africa     <tibble [12 × 4]>
#> 4 Angola     Africa     <tibble [12 × 4]>
#> 5 Argentina  Americas   <tibble [12 × 4]>
#> 6 Australia  Oceania    <tibble [12 × 4]>
#> # … with 136 more rows

(Estoy haciendo un poco de trampa agrupando por continente y pais al mismo tiempo. Dado el pais, continente es fijo, así que no agrega ningún grupo más, pero es una forma fácil de llevarnos una variable adicional para el camino.)

Ésto crea un data frame que tiene una fila por grupo (por país), y una columna bastante inusual: data. data es una lista de data frames (o tibbles, para ser precisos). Esto parece una idea un poco loca: tenemos un data frame con una columna que es una lista de otros data frames! Explicaré brevemente por qué pienso que es una buena idea.

La columna data es un poco difícil de examinar porque es una lista moderadamente complicada, y todavía estamos trabajando para tener buenas herramientas para explorar estos objetos. Desafortunadamente usar str() no es recomendable porque usualmente producirá un output (salida de código) muy extenso. Pero si extraes un solo elemento de la columna data verás que contiene todos los datos para ese país (en este caso, Afganistán).

por_pais$data[[1]]
#> # A tibble: 12 x 4
#>    anio esperanza_de_vida poblacion pib_per_capita
#>   <int>             <dbl>     <int>          <dbl>
#> 1  1952              28.8   8425333           779.
#> 2  1957              30.3   9240934           821.
#> 3  1962              32.0  10267083           853.
#> 4  1967              34.0  11537966           836.
#> 5  1972              36.1  13079460           740.
#> 6  1977              38.4  14880372           786.
#> # … with 6 more rows
…
Y queremos aplicarlo a cada data frame. Los data frames están en una lista, así que podemos usar purrr::map() para aplicar modelo_pais a cada elemento:

modelos <- map(por_pais$data, modelo_pais)

Sin embargo, en lugar de dejar la lista de modelos como un objeto suelto, creo que es mejor almacenarlo como una columna en el data frame por_pais. Almacenar objetos relacionados en columnas es una parte clave del valor de los data frames, y por eso pienso que las columnas-lista son tan buena idea. En el transcurso de nuetro trabajo con estos países, vamos a tener muchas listas donde tenemos un elemento por país. ¿Por qué no almacenarlos todos juntos en un data frame?

En otras palabras, en lugar de crear un nuevo objeto en el entorno global, vamos a crear una nueva variable en el data frame por_pais. Ese es un trabajo para dplyr::mutate():

por_pais <- por_pais %>%
  mutate(modelo = map(data, modelo_pais))
por_pais
#> # A tibble: 142 x 4
#>   pais       continente data              modelo  
#>   <fct>      <fct>      <list>            <list>  
#> 1 Afganistan Asia       <tibble [12 × 4]> <S3: lm>
#> 2 Albania    Europa     <tibble [12 × 4]> <S3: lm>
#> 3 Argelia    Africa     <tibble [12 × 4]> <S3: lm>
#> 4 Angola     Africa     <tibble [12 × 4]> <S3: lm>
#> 5 Argentina  Americas   <tibble [12 × 4]> <S3: lm>
#> 6 Australia  Oceania    <tibble [12 × 4]> <S3: lm>
#> # … with 136 more rows

Esto tiene una gran ventaja: como todos los objetos relacionados están almacenados juntos, no necesitas manualmente mantenerlos sincronizados cuando filtras o reordenas. La semántica del data frame se ocupa de esto por ti:

por_pais %>%
  filter(continente == "Europa")
#> # A tibble: 30 x 4
#>   pais                 continente data              modelo  
#>   <fct>                <fct>      <list>            <list>  
#> 1 Albania              Europa     <tibble [12 × 4]> <S3: lm>
#> 2 Austria              Europa     <tibble [12 × 4]> <S3: lm>
#> 3 Belgica              Europa     <tibble [12 × 4]> <S3: lm>
#> 4 Bosnia y Herzegovina Europa     <tibble [12 × 4]> <S3: lm>
#> 5 Bulgaria             Europa     <tibble [12 × 4]> <S3: lm>
#> 6 Croacia              Europa     <tibble [12 × 4]> <S3: lm>
#> # … with 24 more rows
por_pais %>%
  arrange(continente, pais)
#> # A tibble: 142 x 4
#>   pais         continente data              modelo  
#>   <fct>        <fct>      <list>            <list>  
#> 1 Argelia      Africa     <tibble [12 × 4]> <S3: lm>
#> 2 Angola       Africa     <tibble [12 × 4]> <S3: lm>
#> 3 Benin        Africa     <tibble [12 × 4]> <S3: lm>
#> 4 Botswana     Africa     <tibble [12 × 4]> <S3: lm>
#> 5 Burkina Faso Africa     <tibble [12 × 4]> <S3: lm>
#> 6 Burundi      Africa     <tibble [12 × 4]> <S3: lm>
#> # … with 136 more rows

Si tu lista de data frames y lista de modelos fueran objetos separados, tienes (TODO: acá usaría “tendrías” pero no es lo que usa el original) que acordarte de que cuando reordenas o seleccionas un subconjunto de un vector, necesitas reordenar o seleccionar el subconjunto de todos los demás para mantenerlos sincronizados. Si te olvidas, tu código va a seguir funcionando, pero va a devolver la respuesta equivocada!

25.2.3 Desanidando

Previamente calculamos los residuos de un único modelo con un conjunto de datos también único. Ahora tenemos 142 data frames y 142 modelos. Para calcular los residuos, necesitamos llamar a la función add_residuals() (del inglés adicionar residuos) con cada par modelo-datos:

por_pais <- por_pais %>%
  mutate(
    residuos = map2(data, modelo, add_residuals)
  )
por_pais
#> # A tibble: 142 x 5
#>   pais       continente data              modelo   residuos         
#>   <fct>      <fct>      <list>            <list>   <list>           
#> 1 Afganistan Asia       <tibble [12 × 4]> <S3: lm> <tibble [12 × 5]>
#> 2 Albania    Europa     <tibble [12 × 4]> <S3: lm> <tibble [12 × 5]>
#> 3 Argelia    Africa     <tibble [12 × 4]> <S3: lm> <tibble [12 × 5]>
#> 4 Angola     Africa     <tibble [12 × 4]> <S3: lm> <tibble [12 × 5]>
#> 5 Argentina  Americas   <tibble [12 × 4]> <S3: lm> <tibble [12 × 5]>
#> 6 Australia  Oceania    <tibble [12 × 4]> <S3: lm> <tibble [12 × 5]>
#> # … with 136 more rows

¿Pero cómo puedes graficar una lista de data frames? En lugar de luchar para contestar esa pregunta, transformemos la lista de data frames de vuelta en un data frame regular. Previamente usamos nest() (del inglés anidar) para transformar un data frame regular en uno anidado, y ahora desanidamos con unnest():

residuos <- unnest(por_pais, residuos)
residuos
#> # A tibble: 1,704 x 7
#>   pais   continente  anio esperanza_de_vi… poblacion pib_per_capita   resid
#>   <fct>  <fct>      <int>            <dbl>     <int>          <dbl>   <dbl>
#> 1 Afgan… Asia        1952             28.8   8425333           779. -1.11  
#> 2 Afgan… Asia        1957             30.3   9240934           821. -0.952 
#> 3 Afgan… Asia        1962             32.0  10267083           853. -0.664 
#> 4 Afgan… Asia        1967             34.0  11537966           836. -0.0172
#> 5 Afgan… Asia        1972             36.1  13079460           740.  0.674 
#> 6 Afgan… Asia        1977             38.4  14880372           786.  1.65  
#> # … with 1,698 more rows
…
En lugar de examinar los residuos del modelo, podríamos examinar algunas medidas generales de la calidad del modelo. Aprendiste cómo calcular algunas medidas específicas en el capítulo anterior. Aquí mostraremos un enfoque diferente usando el paquete broom. El paquete broom provee un conjunto de funciones generales para transformar modelos en datos ordenados. Aquí utilizaremos broom::glance() (del inglés vistazo) para extraer algunas métricas de la calidad del modelo. Si lo aplicamos a un modelo, obtenemos un data frame con una única fila:

broom::glance(nz_mod)
#> # A tibble: 1 x 11
#>   r.squared adj.r.squared sigma statistic p.value    df logLik   AIC   BIC
#>       <dbl>         <dbl> <dbl>     <dbl>   <dbl> <int>  <dbl> <dbl> <dbl>
#> 1     0.954         0.949 0.804      205. 5.41e-8     2  -13.3  32.6  34.1
#> # … with 2 more variables: deviance <dbl>, df.residual <int>

Podemos usar mutate() y unnest() para crear un data frame con una fila por cada país:

por_pais %>%
  mutate(glance = map(modelo, broom::glance)) %>%
  unnest(glance)
#> # A tibble: 142 x 16
#>   pais  continente data  modelo residuos r.squared adj.r.squared sigma
#>   <fct> <fct>      <lis> <list> <list>       <dbl>         <dbl> <dbl>
#> 1 Afga… Asia       <tib… <S3: … <tibble…     0.948         0.942 1.22 
#> 2 Alba… Europa     <tib… <S3: … <tibble…     0.911         0.902 1.98 
#> 3 Arge… Africa     <tib… <S3: … <tibble…     0.985         0.984 1.32 
#> 4 Ango… Africa     <tib… <S3: … <tibble…     0.888         0.877 1.41 
#> 5 Arge… Americas   <tib… <S3: … <tibble…     0.996         0.995 0.292
#> 6 Aust… Oceania    <tib… <S3: … <tibble…     0.980         0.978 0.621
#> # … with 136 more rows, and 8 more variables: statistic <dbl>,
#> #   p.value <dbl>, df <int>, logLik <dbl>, AIC <dbl>, BIC <dbl>,
#> #   deviance <dbl>, df.residual <int>

Este no es exactamente el output que queremos, porque aún incluye todas las columnas que son una lista. Éste es el comportamiento por defecto cuando unnest() trabaja sobre data frames con una única fila. Para suprimir esas columnas usamos .drop = TRUE (drop — del inglés descartar):

glance <- por_pais %>%
  mutate(glance = map(modelo, broom::glance)) %>%
  unnest(glance, .drop = TRUE)
glance
#> # A tibble: 142 x 13
#>   pais  continente r.squared adj.r.squared sigma statistic  p.value    df
#>   <fct> <fct>          <dbl>         <dbl> <dbl>     <dbl>    <dbl> <int>
#> 1 Afga… Asia           0.948         0.942 1.22      181.  9.84e- 8     2
#> 2 Alba… Europa         0.911         0.902 1.98      102.  1.46e- 6     2
#> 3 Arge… Africa         0.985         0.984 1.32      662.  1.81e-10     2
#> 4 Ango… Africa         0.888         0.877 1.41       79.1 4.59e- 6     2
#> 5 Arge… Americas       0.996         0.995 0.292    2246.  4.22e-13     2
#> 6 Aust… Oceania        0.980         0.978 0.621     481.  8.67e-10     2
#> # … with 136 more rows, and 5 more variables: logLik <dbl>, AIC <dbl>,
#> #   BIC <dbl>, deviance <dbl>, df.residual <int>

(Presta atención a las variables que no se imprimieron: hay mucha información útil allí.)

Con este data frame, podemos empezar a buscar modelos que no se ajustan bien:

glance %>%
  arrange(r.squared)
#> # A tibble: 142 x 13
#>   pais  continente r.squared adj.r.squared sigma statistic p.value    df
#>   <fct> <fct>          <dbl>         <dbl> <dbl>     <dbl>   <dbl> <int>
#> 1 Ruan… Africa        0.0172      -0.0811   6.56     0.175   0.685     2
#> 2 Bots… Africa        0.0340      -0.0626   6.11     0.352   0.566     2
#> 3 Zimb… Africa        0.0562      -0.0381   7.21     0.596   0.458     2
#> 4 Zamb… Africa        0.0598      -0.0342   4.53     0.636   0.444     2
#> 5 Swaz… Africa        0.0682      -0.0250   6.64     0.732   0.412     2
#> 6 Leso… Africa        0.0849      -0.00666  5.93     0.927   0.358     2
#> # … with 136 more rows, and 5 more variables: logLik <dbl>, AIC <dbl>,
#> #   BIC <dbl>, deviance <dbl>, df.residual <int>
…
Alternativamente, podrías crearlas a partir de una lista nombrada, usando tibble::enframe().

Generalmente, cuando creas columnas-lista, debes asegurarte de que sean homogéneas: cada elemento debe contener el mismo tipo de cosa. No hay chequeos para asegurarte de que sea así, pero si usas purrr y recuerdas lo que aprendiste sobre funciones de tipo estable (TODO: type-stable functions), encontrarás que eso pasa naturalmente.

25.4.1 Con anidación

nest() crea un data frame anidado, que es un data frame con una columna-lista de data frames. En un data frame anidado cada fila es una meta-observación: las otras columnas son variables que definen la observación (como país y continente arriba), y la columna-lista de data frames tiene las observaciones individuales que construyen la meta-observación.

Hay dos formas de usar nest(). Hasta ahora has visto cómo usarlo con un data frame agrupado. Cuando se aplica a un data frame agrupado, nest() mantiene las columnas que agrupan tal cual, y envuelve todo lo demás en la columna-lista:

paises %>%
  group_by(pais, continente) %>%
  nest()
#> # A tibble: 142 x 3
#>   pais       continente data             
#>   <fct>      <fct>      <list>           
#> 1 Afganistan Asia       <tibble [12 × 4]>
#> 2 Albania    Europa     <tibble [12 × 4]>
#> 3 Argelia    Africa     <tibble [12 × 4]>
#> 4 Angola     Africa     <tibble [12 × 4]>
#> 5 Argentina  Americas   <tibble [12 × 4]>
#> 6 Australia  Oceania    <tibble [12 × 4]>
#> # … with 136 more rows

También lo puedes usar en un data frame no agrupado, especificando cuáles columnas quieres anidar:

paises %>%
  nest(anio:pib_per_capita)
#> # A tibble: 142 x 3
#>   pais       continente data             
#>   <fct>      <fct>      <list>           
#> 1 Afganistan Asia       <tibble [12 × 4]>
#> 2 Albania    Europa     <tibble [12 × 4]>
#> 3 Argelia    Africa     <tibble [12 × 4]>
#> 4 Angola     Africa     <tibble [12 × 4]>
#> 5 Argentina  Americas   <tibble [12 × 4]>
#> 6 Australia  Oceania    <tibble [12 × 4]>
#> # … with 136 more rows
…
df %>%
  mutate(x2 = stringr::str_split(x1, ","))
#> # A tibble: 2 x 2
#>   x1      x2       
#>   <chr>   <list>   
#> 1 a,b,c   <chr [3]>
#> 2 d,e,f,g <chr [4]>

unnest() sabe cómo manejar estas listas de vectores:

df %>%
  mutate(x2 = stringr::str_split(x1, ",")) %>%
  unnest()
#> # A tibble: 7 x 2
#>   x1      x2   
#>   <chr>   <chr>
#> 1 a,b,c   a    
#> 2 a,b,c   b    
#> 3 a,b,c   c    
#> 4 d,e,f,g d    
#> 5 d,e,f,g e    
#> 6 d,e,f,g f    
#> # … with 1 more row
…
Para producir resultados útiles con unnest, también necesitarás capturar las probabilidades:

probs <- c(0.01, 0.25, 0.5, 0.75, 0.99)
mtautos %>%
  group_by(cilindros) %>%
  summarise(p = list(probs), q = list(quantile(millas, probs))) %>%
  unnest()
#> # A tibble: 15 x 3
#>   cilindros     p     q
#>       <dbl> <dbl> <dbl>
#> 1         4  0.01  21.4
#> 2         4  0.25  22.8
#> 3         4  0.5   26  
#> 4         4  0.75  30.4
#> 5         4  0.99  33.8
#> 6         6  0.01  17.8
#> # … with 9 more rows
…
25.4.5 Ejercicios

Lista todas las funciones en las que puedas pensar que tomen como input un vector atómico y retornen una lista.

Piensa en funciones de resumen útiles que, como quantile(), retornen múltiples valores.

¿Qué es lo que falta en el siguiente data frame? ¿Cómo quantile() retorna eso que falta? ¿Por qué eso no es tan útil aquí?

mtautos %>%
  group_by(cilindros) %>%
  summarise(q = list(quantile(millas))) %>%
  unnest()
#> # A tibble: 15 x 2
#>   cilindros     q
#>       <dbl> <dbl>
#> 1         4  21.4
#> 2         4  22.8
#> 3         4  26  
#> 4         4  30.4
#> 5         4  33.9
#> 6         6  17.8
#> # … with 9 more rows
…
