10 Tibbles | R para Ciencia de Datos
…
Si luego de leer este capítulo te quedas con ganas de aprender más sobre tibbles, quizás disfrutes vignette("tibble").

10.1.1 Requisitos

En este capítulo exploraré el paquete tibble, parte de los paquetes principales del tidyverse.

library(tidyverse)

10.2 Creando tibbles

La mayoría de las funciones que usarás en este libro producen tibbles, ya que éstos son una de las características principales de tidyverse. La mayoría de los paquetes de R suelen usar data frames clásicos, así que quizás quieras convertir un data frame en un tibble. Esto lo puedes hacer con as_tibble():

as_tibble(iris)
#> # A tibble: 150 x 5
#>   Sepal.Length Sepal.Width Petal.Length Petal.Width Species
#>          <dbl>       <dbl>        <dbl>       <dbl> <fct>  
#> 1          5.1         3.5          1.4         0.2 setosa 
#> 2          4.9         3            1.4         0.2 setosa 
#> 3          4.7         3.2          1.3         0.2 setosa 
#> 4          4.6         3.1          1.5         0.2 setosa 
#> 5          5           3.6          1.4         0.2 setosa 
#> 6          5.4         3.9          1.7         0.4 setosa 
#> # … with 144 more rows
…
Existen dos diferencias principales entre el uso de un tibble y un data.frame clásico: la impresión en la consola y la selección de los subconjuntos.

10.3.1 Impresión en la consola

Los tibbles tienen un método de impresión en la consola refinado: sólo muestran las primeras 10 filas, y sólo aquellas columnas que entran en el ancho de la pantalla. Esto simplifica y facilita trabajar con bases de datos grandes. Además del nombre, cada columna muestra su tipo. Esto último es una característica útil tomada de str().

tibble(
  a = lubridate::now() + runif(1e3) * 86400,
  b = lubridate::today() + runif(1e3) * 30,
  c = 1:1e3,
  d = runif(1e3),
  e = sample(letters, 1e3, replace = TRUE)
)
#> # A tibble: 1,000 x 5
#>   a                   b              c     d e    
#>   <dttm>              <date>     <int> <dbl> <chr>
#> 1 2019-02-20 03:04:33 2019-02-27     1 0.368 h    
#> 2 2019-02-20 21:09:42 2019-03-04     2 0.612 n    
#> 3 2019-02-20 15:33:22 2019-03-14     3 0.415 l    
#> 4 2019-02-20 04:54:39 2019-03-13     4 0.212 x    
#> 5 2019-02-20 01:18:55 2019-03-10     5 0.733 a    
#> 6 2019-02-20 12:19:52 2019-03-06     6 0.460 v    
#> # … with 994 more rows
…
