…
En este capítulo exploraré el paquete __tibble__, parte de los paquetes principales del tidyverse.


```r
library(tidyverse)
```

## Creando tibbles {#tibbles}

La mayoría de las funciones que usarás en este libro producen tibbles, ya que éstos son una de las características principales de tidyverse. La mayoría de los paquetes de R suelen usar data frames clásicos, así que quizás quieras convertir un data frame en un tibble. Esto lo puedes hacer con `as_tibble()`:


```r
as_tibble(iris)
#> # A tibble: 150 x 5
#>   Sepal.Length Sepal.Width Petal.Length Petal.Width Species
#>          <dbl>       <dbl>        <dbl>       <dbl> <fct>  
#> 1          5.1         3.5          1.4         0.2 setosa 
#> 2          4.9         3            1.4         0.2 setosa 
#> 3          4.7         3.2          1.3         0.2 setosa 
#> 4          4.6         3.1          1.5         0.2 setosa 
#> 5          5           3.6          1.4         0.2 setosa 
#> 6          5.4         3.9          1.7         0.4 setosa 
#> # … with 144 more rows
```
…
### Impresión en la consola

Los tibbles tienen un método de impresión en la consola refinado: sólo muestran las primeras 10 filas, y sólo aquellas columnas que entran en el ancho de la pantalla. Esto simplifica y facilita trabajar con bases de datos grandes. Además del nombre, cada columna muestra su tipo. Esto último es una característica útil tomada de `str()`.


```r
tibble(
  a = lubridate::now() + runif(1e3) * 86400,
  b = lubridate::today() + runif(1e3) * 30,
  c = 1:1e3,
  d = runif(1e3),
  e = sample(letters, 1e3, replace = TRUE)
)
#> # A tibble: 1,000 x 5
#>   a                   b              c     d e    
#>   <dttm>              <date>     <int> <dbl> <chr>
#> 1 2019-02-20 16:21:45 2019-02-27     1 0.368 h    
#> 2 2019-02-21 10:26:55 2019-03-04     2 0.612 n    
#> 3 2019-02-21 04:50:34 2019-03-14     3 0.415 l    
#> 4 2019-02-20 18:11:51 2019-03-13     4 0.212 x    
#> 5 2019-02-20 14:36:08 2019-03-10     5 0.733 a    
#> 6 2019-02-21 01:37:05 2019-03-06     6 0.460 v    
#> # … with 994 more rows
```
…
