3 Visualización de datos | R para Ciencia de Datos
…
Si necesitamos ser explícitos acerca de dónde viene una función (o un conjunto de datos), usaremos el formato especial package::function(). Por ejemplo, ggplot2::ggplot() dice explícitamente que estamos usando la función ggplot() del paquete ggplot2.

3.2 Primeros pasos

Usemos nuestro primer gráfico para responder una pregunta: ¿Los automóviles con motores grandes consumen más combustible que los automóviles con motores pequeños? Probablemente ya tengas una respuesta, pero trata de responder de forma precisa. ¿Cómo es la relación entre el tamaño del motor y la eficiencia del combustible? ¿Es positiva? ¿Es negativa? ¿Es lineal o no lineal?

3.2.1 El conjunto de datos millas

Puedes poner a prueba tu respuesta empleando el conjunto de datos millas que se encuentra en el paquete datos (datos::millas). Un conjunto de datos es una colección rectangular de variables (en las columnas) y observaciones (en las filas). millas contiene observaciones para 38 modelos de automóviles recopiladas por la Agencia de Protección Ambiental de los EE. UU.

library(datos)

millas
#> # A tibble: 234 x 11
#>   fabricante modelo motor  anio cilindros transmision traccion ciudad
#>   <fct>      <fct>  <dbl> <int>     <int> <fct>       <fct>     <int>
#> 1 audi       a4       1.8  1999         4 auto(l5)    d            18
#> 2 audi       a4       1.8  1999         4 manual(m5)  d            21
#> 3 audi       a4       2    2008         4 manual(m6)  d            20
#> 4 audi       a4       2    2008         4 auto(av)    d            21
#> 5 audi       a4       2.8  1999         6 auto(l5)    d            16
#> 6 audi       a4       2.8  1999         6 manual(m5)  d            18
#> # … with 228 more rows, and 3 more variables: autopista <int>,
#> #   combustible <fct>, clase <fct>
…
